{
    "KPlugin": {
        "Authors": [
            {
                "Email": "montel@kde.org",
                "Name": "Laurent Montel",
                "Name[ar]": "Laurent Montel",
                "Name[az]": "Laurent Montel",
                "Name[bg]": "Laurent Montel",
                "Name[ca@valencia]": "Laurent Montel",
                "Name[ca]": "Laurent Montel",
                "Name[cs]": "Laurent Montel",
                "Name[de]": "Laurent Montel",
                "Name[en_GB]": "Laurent Montel",
                "Name[es]": "Laurent Montel",
                "Name[eu]": "Laurent Montel",
                "Name[fi]": "Laurent Montel",
                "Name[fr]": "Laurent Montel",
                "Name[ia]": "Laurent Montel",
                "Name[id]": "Laurent Montel",
                "Name[is]": "Laurent Montel",
                "Name[it]": "Laurent Montel",
                "Name[ja]": "Laurent Montel",
                "Name[ka]": "Laurent Montel",
                "Name[ko]": "Laurent Montel",
                "Name[lt]": "Laurent Montel",
                "Name[nl]": "Laurent Montel",
                "Name[nn]": "Laurent Montel",
                "Name[pl]": "Laurent Montel",
                "Name[pt]": "Laurent Montel",
                "Name[pt_BR]": "Laurent Montel",
                "Name[ro]": "Laurent Montel",
                "Name[ru]": "Laurent Montel",
                "Name[sk]": "Laurent Montel",
                "Name[sl]": "Laurent Montel",
                "Name[sv]": "Laurent Montel",
                "Name[tr]": "Laurent Montel",
                "Name[uk]": "Laurent Montel",
                "Name[vi]": "Laurent Montel",
                "Name[x-test]": "xxLaurent Montelxx",
                "Name[zh_CN]": "Laurent Montel",
                "Name[zh_TW]": "Laurent Montel"
            }
        ],
        "Description": "Matches Konsole Profiles",
        "Description[ar]": "تطابق تشكيلات كونسول",
        "Description[az]": "Konsol profillərinə uyğun",
        "Description[bg]": "Сравнява сесии на Konsole",
        "Description[ca@valencia]": "Correspon amb perfils de Konsole",
        "Description[ca]": "Correspon amb perfils del Konsole",
        "Description[de]": "Findet Konsole-Profile",
        "Description[en_GB]": "Matches Konsole Profiles",
        "Description[es]": "Coincide perfiles de Konsole",
        "Description[eu]": "«Konsole»ko profilak parekatzen ditu",
        "Description[fi]": "Etsii Konsolen profiileista",
        "Description[fr]": "Correspond aux profils de Konsole",
        "Description[ia]": "Coincide profilos de Konsole",
        "Description[id]": "Cocokkan Sesi Konsole",
        "Description[is]": "Samsvarar Konsole-sniðum",
        "Description[it]": "Verifica profili di Konsole",
        "Description[ja]": "Konsole のセッションを探します",
        "Description[ka]": "პოულობს Konsole -ის პროფილებს",
        "Description[ko]": "Konsole 프로필과 일치",
        "Description[lt]": "Atitinka Konsole profilius",
        "Description[nl]": "Komt overeen met Konsole-profielen",
        "Description[nn]": "Søk etter Konsoll-profilar",
        "Description[pl]": "Dopasowuje profile Konsoli",
        "Description[pt]": "Correspondência a Perfis do Kate",
        "Description[pt_BR]": "Corresponde aos perfis do Konsole",
        "Description[ro]": "Potrivește profiluri de Konsolă",
        "Description[ru]": "Выбор профилей Konsole",
        "Description[sk]": "Zobrazí Konsole profily",
        "Description[sl]": "Najdi profile Konzole",
        "Description[sv]": "Matchar terminalprofiler",
        "Description[tr]": "Konsole profillerini eşleştirir",
        "Description[uk]": "Шукає профілі Konsole",
        "Description[vi]": "Tìm các hồ sơ Konsole",
        "Description[x-test]": "xxMatches Konsole Profilesxx",
        "Description[zh_CN]": "匹配 Konsole 配置方案",
        "Description[zh_TW]": "比對 Konsole 設定檔",
        "EnabledByDefault": true,
        "Icon": "utilities-terminal",
        "Id": "konsoleprofiles",
        "License": "LGPL",
        "Name": "Konsole Profiles",
        "Name[ar]": "تشكيلات كونسول",
        "Name[az]": "Konsol profilləri",
        "Name[bg]": "Профили на Konsole",
        "Name[ca@valencia]": "Perfils de Konsole",
        "Name[ca]": "Perfils del Konsole",
        "Name[cs]": "Profily Konsole",
        "Name[de]": "Konsole-Profile",
        "Name[en_GB]": "Konsole Profiles",
        "Name[es]": "Perfiles de Konsole",
        "Name[eu]": "«Konsole»ren profilak",
        "Name[fi]": "Konsole-profiilit",
        "Name[fr]": "Profils de Konsole",
        "Name[ia]": "Profilos de Konsole",
        "Name[id]": "Profil Konsole",
        "Name[is]": "Konsole snið",
        "Name[it]": "Profili di Konsole",
        "Name[ja]": "Konsole プロファイル",
        "Name[ka]": "Konsole -ის პროფილები",
        "Name[ko]": "Konsole 프로필",
        "Name[lt]": "Konsole profiliai",
        "Name[nl]": "Konsole-profielen",
        "Name[nn]": "Konsoll-profilar",
        "Name[pl]": "Profile Konsoli",
        "Name[pt]": "Perfis do Konsole",
        "Name[pt_BR]": "Perfis do Konsole",
        "Name[ro]": "Profiluri Konsolă",
        "Name[ru]": "Konsole: профили",
        "Name[sk]": "Profily Konsole",
        "Name[sl]": "Profili Konzole",
        "Name[sv]": "Terminalprofiler",
        "Name[tr]": "Konsol Profilleri",
        "Name[uk]": "Профілі Konsole",
        "Name[vi]": "Hồ sơ Konsole",
        "Name[x-test]": "xxKonsole Profilesxx",
        "Name[zh_CN]": "Konsole 配置方案",
        "Name[zh_TW]": "Konsole 設定檔"
    }
}
