{
    "KPlugin": {
        "Authors": [
            {
                "Email": "lampih@gmail.com",
                "Name": "Luís Gabriel Lima",
                "Name[ar]": "Luís Gabriel Lima",
                "Name[az]": "Luís Gabriel Lima",
                "Name[bg]": "Luís Gabriel Lima",
                "Name[ca@valencia]": "Luís Gabriel Lima",
                "Name[ca]": "Luís Gabriel Lima",
                "Name[cs]": "Luís Gabriel Lima",
                "Name[de]": "Luís Gabriel Lima",
                "Name[en_GB]": "Luís Gabriel Lima",
                "Name[es]": "Luís Gabriel Lima",
                "Name[eu]": "Luís Gabriel Lima",
                "Name[fi]": "Luís Gabriel Lima",
                "Name[fr]": "Luís Gabriel Lima",
                "Name[ia]": "Luís Gabriel Lima",
                "Name[id]": "Luís Gabriel Lima",
                "Name[is]": "Luís Gabriel Lima",
                "Name[it]": "Luís Gabriel Lima",
                "Name[ja]": "Luís Gabriel Lima",
                "Name[ka]": "Luís Gabriel Lima",
                "Name[ko]": "Luís Gabriel Lima",
                "Name[lt]": "Luís Gabriel Lima",
                "Name[nl]": "Luís Gabriel Lima",
                "Name[nn]": "Luís Gabriel Lima",
                "Name[pl]": "Luís Gabriel Lima",
                "Name[pt]": "Luís Gabriel Lima",
                "Name[pt_BR]": "Luís Gabriel Lima",
                "Name[ro]": "Luís Gabriel Lima",
                "Name[ru]": "Luís Gabriel Lima",
                "Name[sk]": "Luís Gabriel Lima",
                "Name[sl]": "Luís Gabriel Lima",
                "Name[sv]": "Luís Gabriel Lima",
                "Name[tr]": "Luís Gabriel Lima",
                "Name[uk]": "Luís Gabriel Lima",
                "Name[vi]": "Luís Gabriel Lima",
                "Name[x-test]": "xxLuís Gabriel Limaxx",
                "Name[zh_CN]": "Luís Gabriel Lima",
                "Name[zh_TW]": "Luís Gabriel Lima"
            }
        ],
        "Category": "Environment and Weather",
        "Description": "Forecast and current conditions",
        "Description[ar]": "حالة الطق الحالية و المتوقعة",
        "Description[az]": "Cari və gözlənilən hava məlumatı",
        "Description[bg]": "Прогноза за времето и настоящи условия",
        "Description[ca@valencia]": "Previsió i condicions actuals",
        "Description[ca]": "Previsió i condicions actuals",
        "Description[cs]": "Předpověď a současná situace",
        "Description[de]": "Vorhersage und aktuelle Zustand",
        "Description[en_GB]": "Forecast and current conditions",
        "Description[es]": "Previsión meteorológica y condiciones actuales",
        "Description[eu]": "Iragarpena eta uneko egoera",
        "Description[fi]": "Ennuste ja nykyinen säätila",
        "Description[fr]": "Prévisions et conditions actuelles",
        "Description[ia]": "Prevision e conditiones currente",
        "Description[id]": "Prakiraan dan kondisi saat ini",
        "Description[is]": "Veðurspá og fyrirliggjandi veðurlýsing",
        "Description[it]": "Previsioni e condizioni attuali",
        "Description[ja]": "予報と現在の状況を表示します",
        "Description[ka]": "პროგნოზი და მიმდინარე მდგობარეობა",
        "Description[ko]": "일기 예보와 현재 날씨",
        "Description[lt]": "Orų prognozė ir dabartinės orų sąlygos",
        "Description[nl]": "Voorspelling en huidige condities",
        "Description[nn]": "Vêrmelding og gjeldande vêr",
        "Description[pl]": "Prognoza i obecny warunki pogodowe",
        "Description[pt]": "Previsão e condições actuais",
        "Description[pt_BR]": "Previsão e condições atuais",
        "Description[ro]": "Prognoza și condițiile actuale",
        "Description[ru]": "Прогноз и информация о погоде в данный момент",
        "Description[sk]": "Predpoveď a aktuálne podmienky",
        "Description[sl]": "Napoved in trenutne razmere",
        "Description[sv]": "Prognos och aktuella förhållanden",
        "Description[tr]": "Hava tahmini ve geçerli durum",
        "Description[uk]": "Прогноз і поточні умови",
        "Description[vi]": "Dự báo và điều kiện hiện tại",
        "Description[x-test]": "xxForecast and current conditionsxx",
        "Description[zh_CN]": "天气预告和当前天气",
        "Description[zh_TW]": "預報及目前氣象觀測",
        "Icon": "weather-clear",
        "Id": "org.kde.plasma.weather",
        "License": "GPL-2.0+",
        "Name": "Weather Report",
        "Name[ar]": "تقرير الطقس",
        "Name[az]": "Hava məlumatı",
        "Name[bg]": "Прогноза за времето",
        "Name[ca@valencia]": "Informe meteorològic",
        "Name[ca]": "Informe meteorològic",
        "Name[cs]": "Hlášení počasí",
        "Name[de]": "Wetterbericht",
        "Name[en_GB]": "Weather Report",
        "Name[es]": "Informe meteorológico",
        "Name[eu]": "Eguraldi iragarpena",
        "Name[fi]": "Säätiedotus",
        "Name[fr]": "Bulletin météo",
        "Name[ia]": "Reporto de Tempore meteorologic",
        "Name[id]": "Laporan Cuaca",
        "Name[is]": "Veðurfregnir",
        "Name[it]": "Previsioni meteo",
        "Name[ja]": "天気予報",
        "Name[ka]": "ამინდის ანგარიში",
        "Name[ko]": "일기 예보",
        "Name[lt]": "Orų pranešimai",
        "Name[nl]": "Weerrapport",
        "Name[nn]": "Vêr­melding",
        "Name[pl]": "Prognoza pogody",
        "Name[pt]": "Boletim Meteorológico",
        "Name[pt_BR]": "Previsão do tempo",
        "Name[ro]": "Prognoza vremii",
        "Name[ru]": "Прогноз погоды",
        "Name[sk]": "Hlásenie o počasí",
        "Name[sl]": "Vremensko poročilo",
        "Name[sv]": "Väderprognos",
        "Name[tr]": "Hava Durumu Raporu",
        "Name[uk]": "Звіт щодо погоди",
        "Name[vi]": "Tin thời tiết",
        "Name[x-test]": "xxWeather Reportxx",
        "Name[zh_CN]": "天气报告",
        "Name[zh_TW]": "天氣預報",
        "ServiceTypes": [
            "Plasma/Applet"
        ],
        "Version": "1.0",
        "Website": "https://kde.org/plasma-desktop/"
    },
    "X-Plasma-API": "declarativeappletscript",
    "X-Plasma-MainScript": "ui/main.qml",
    "X-Plasma-NotificationArea": "true"
}
