{
    "KPlugin": {
        "Authors": [
            {
                "Email": "mgraesslin@kde.org",
                "Name": "Martin Gräßlin",
                "Name[ar]": "Martin Gräßlin",
                "Name[az]": "Martin Gräßlin",
                "Name[bg]": "Martin Gräßlin",
                "Name[ca@valencia]": "Martin Gräßlin",
                "Name[ca]": "Martin Gräßlin",
                "Name[de]": "Martin Gräßlin",
                "Name[en_GB]": "Martin Gräßlin",
                "Name[es]": "Martin Gräßlin",
                "Name[eu]": "Martin Gräßlin",
                "Name[fi]": "Martin Gräßlin",
                "Name[fr]": "Martin Gräßlin",
                "Name[ia]": "Martin Gräßlin",
                "Name[id]": "Martin Gräßlin",
                "Name[is]": "Martin Gräßlin",
                "Name[it]": "Martin Gräßlin",
                "Name[ja]": "Martin Gräßlin",
                "Name[ka]": "მარტინ გრესსლინი",
                "Name[ko]": "Martin Gräßlin",
                "Name[lt]": "Martin Gräßlin",
                "Name[nl]": "Martin Gräßlin",
                "Name[nn]": "Martin Gräßlin",
                "Name[pl]": "Martin Gräßlin",
                "Name[pt]": "Martin Gräßlin",
                "Name[pt_BR]": "Martin Gräßlin",
                "Name[ro]": "Martin Gräßlin",
                "Name[ru]": "Martin Gräßlin",
                "Name[sk]": "Martin Gräßlin",
                "Name[sl]": "Martin Gräßlin",
                "Name[sv]": "Martin Gräßlin",
                "Name[tr]": "Martin Gräßlin",
                "Name[uk]": "Martin Gräßlin",
                "Name[vi]": "Martin Gräßlin",
                "Name[x-test]": "xxMartin Gräßlinxx",
                "Name[zh_CN]": "Martin Gräßlin",
                "Name[zh_TW]": "Martin Gräßlin"
            }
        ],
        "Description": "A window switcher layout using small icons to represent the window",
        "Description[ar]": "مخطط مبدل النوافذ باستخدام أيقونات صغيرة لتمثيل النافذة",
        "Description[az]": "Pəncərələri göstərmək üçün kiçik nişanlar istifadə edən pəncərə dəyişdirici maketi",
        "Description[bg]": "Оформление на програмата за превключване на прозорци с използване на малки икони за представяне на прозорците",
        "Description[ca@valencia]": "Una disposició del commutador de finestres que utilitza icones xicotetes per a representar la finestra",
        "Description[ca]": "Una disposició del commutador de finestres que usa icones petites per a representar la finestra",
        "Description[de]": "Ein Fensterwechsler-Layout, das kleine Symbole zur Darstellung der Fenster verwendet",
        "Description[en_GB]": "A window switcher layout using small icons to represent the window",
        "Description[es]": "Un esquema de selección de ventanas que usa iconos pequeños para representar las ventanas",
        "Description[eu]": "Leihoa ordezkatzeko ikono txikiak erabiltzen dituen leiho-trukatzaile bat",
        "Description[fi]": "Ikkunavaihtoasettelu pienin ikkunoita esittävin kuvakkein",
        "Description[fr]": "Une disposition du sélecteur de fenêtres utilisant de petites icônes pour représenter les fenêtres",
        "Description[ia]": "Un disposition de commutator de fenestra usante parve icones pro representar le fenestra",
        "Description[id]": "Sebuah tataletak pengalih jendela menggunakan ikon kecil untuk mewakili jendela",
        "Description[it]": "Una disposizione del selettore delle finestre che utilizza icone piccole per rappresentare la finestra",
        "Description[ja]": "ウィンドウを小さいアイコンで表すウィンドウスイッチャー",
        "Description[ka]": "ფანჯრების განლაგების გადართვა ფანჯრის წარმოსადგენად პატარა ხატულების ჩვენების საშუალებით",
        "Description[ko]": "작은 아이콘으로 창을 나타내는 창 전환기 레이아웃",
        "Description[lt]": "Langų perjungiklio išdėstymas langų atvaizdavimui naudojantis mažas piktogramas",
        "Description[nl]": "Een indeling van de vensterwisselaar die kleine pictogrammen gebruikt om vensters te representeren",
        "Description[nn]": "Vindagsbytar som brukar små ikon for å representera vindauge",
        "Description[pl]": "Przełącznik okien z małymi ikonami",
        "Description[pt]": "Uma disposição de mudança de janelas que usa ícones pequenos para representar a janela",
        "Description[pt_BR]": "Um layout do seletor de janelas que usa ícones pequenos para representá-las",
        "Description[ro]": "Aranjament pentru comutatorul de ferestre folosind pictograme mici pentru a reprezenta fereastra",
        "Description[ru]": "Переключатель окон, показывающий маленькие значки окон",
        "Description[sk]": "Rozloženie prepínača okien používajúce malé ikony na reprezentáciu okien",
        "Description[sl]": "Razporeditev preklopa oken, kjer male ikone predstavljajo okno",
        "Description[sv]": "En layout för fönsterbyte som använder små ikoner för att representera fönstret",
        "Description[tr]": "Pencereyi göstermek için küçük simgeler kullanan bir pencere değiştirici düzeni",
        "Description[uk]": "Компонування засобу перемикання вікон з малими піктограмами вікон",
        "Description[vi]": "Bố cục trình chuyển cửa sổ dùng các biểu tượng cỡ nhỏ để biểu diễn cửa sổ",
        "Description[x-test]": "xxA window switcher layout using small icons to represent the windowxx",
        "Description[zh_CN]": "使用小图标代表窗口的窗口切换器布局",
        "Description[zh_TW]": "用小圖示代表視窗的視窗切換器佈局",
        "Icon": "preferences-system-windows-switcher-small-icons",
        "Id": "small_icons",
        "License": "GPL",
        "Name": "Small Icons",
        "Name[ar]": "أيقونات صغيرة",
        "Name[az]": "Kiçik nişanlar",
        "Name[bg]": "Малки икони",
        "Name[ca@valencia]": "Icones xicotetes",
        "Name[ca]": "Icones petites",
        "Name[cs]": "Malé ikony",
        "Name[de]": "Kleine Symbole",
        "Name[en_GB]": "Small Icons",
        "Name[es]": "Iconos pequeños",
        "Name[eu]": "Ikono txikiak",
        "Name[fi]": "Pienet kuvakkeet",
        "Name[fr]": "Petite icônes",
        "Name[ia]": "Icones parve",
        "Name[id]": "Ikon Kecil",
        "Name[is]": "Litlar táknmyndir",
        "Name[it]": "Icone piccole",
        "Name[ja]": "小さいアイコン",
        "Name[ka]": "პატარა ხატულები",
        "Name[ko]": "작은 아이콘",
        "Name[lt]": "Mažos piktogramos",
        "Name[nl]": "Kleine pictogrammen",
        "Name[nn]": "Små ikon",
        "Name[pl]": "Małe ikony",
        "Name[pt]": "Ícones Pequenos",
        "Name[pt_BR]": "Ícones pequenos",
        "Name[ro]": "Pictograme mici",
        "Name[ru]": "Маленькие значки",
        "Name[sk]": "Malé ikony",
        "Name[sl]": "Male ikone",
        "Name[sv]": "Små ikoner",
        "Name[tr]": "Küçük Simgeler",
        "Name[uk]": "Малі піктограми",
        "Name[vi]": "Biểu tượng nhỏ",
        "Name[x-test]": "xxSmall Iconsxx",
        "Name[zh_CN]": "小图标",
        "Name[zh_TW]": "小圖示",
        "ServiceTypes": [
            "KWin/WindowSwitcher"
        ],
        "Version": "1.0"
    },
    "X-Plasma-API": "declarativeappletscript",
    "X-Plasma-MainScript": "ui/main.qml"
}
