{
    "KPlugin": {
        "Authors": [
            {
                "Email": "mart@kde.org",
                "Name": "Marco Martin",
                "Name[ar]": "Marco Martin",
                "Name[az]": "Marco Martin",
                "Name[bg]": "Marco Martin",
                "Name[ca@valencia]": "Marco Martin",
                "Name[ca]": "Marco Martin",
                "Name[cs]": "Marco Martin",
                "Name[de]": "Marco Martin",
                "Name[en_GB]": "Marco Martin",
                "Name[es]": "Marco Martin",
                "Name[eu]": "Marco Martin",
                "Name[fi]": "Marco Martin",
                "Name[fr]": "Marco Martin",
                "Name[ia]": "Marco Martin",
                "Name[is]": "Marco Martin",
                "Name[it]": "Marco Martin",
                "Name[ja]": "Marco Martin",
                "Name[ka]": "მაკრო მარტინი",
                "Name[ko]": "Marco Martin",
                "Name[lt]": "Marco Martin",
                "Name[nl]": "Marco Martin",
                "Name[nn]": "Marco Martin",
                "Name[pl]": "Marco Martin",
                "Name[pt]": "Marco Martin",
                "Name[pt_BR]": "Marco Martin",
                "Name[ro]": "Marco Martin",
                "Name[ru]": "Marco Martin",
                "Name[sk]": "Marco Martin",
                "Name[sl]": "Marco Martin",
                "Name[sv]": "Marco Martin",
                "Name[tr]": "Marco Martin",
                "Name[uk]": "Marco Martin",
                "Name[vi]": "Marco Martin",
                "Name[x-test]": "xxMarco Martinxx",
                "Name[zh_CN]": "Marco Martin",
                "Name[zh_TW]": "Marco Martin"
            }
        ],
        "Description": "Hunyango wallpaper",
        "Description[ar]": "خلفية الحرباء",
        "Description[az]": "Hunyango divar kağızı",
        "Description[bg]": "Hunyango тапет",
        "Description[ca@valencia]": "Fons de pantalla Hunyango",
        "Description[ca]": "Fons de pantalla Hunyango",
        "Description[de]": "Hunyango-Hintergrundbild",
        "Description[en_GB]": "Hunyango wallpaper",
        "Description[es]": "Fondo de pantalla Hunyango",
        "Description[eu]": "Hunyango horma-papera",
        "Description[fi]": "Hunyango-taustakuva",
        "Description[fr]": "Fond d'écran de Hunyango",
        "Description[ia]": "Tapete de papiro de Hunyango",
        "Description[is]": "Hunyango-bakgrunnsmynd",
        "Description[it]": "Sfondo Hunyango",
        "Description[ja]": "Hunyango 壁紙",
        "Description[ka]": "ჰუნიანგოს ფონის სურათი",
        "Description[ko]": "Hunyango 배경 그림",
        "Description[lt]": "Hunyango darbalaukio fonas",
        "Description[nl]": "Hunyango achtergrondafbeelding",
        "Description[nn]": "Hunyango-bakgrunnsbilete",
        "Description[pl]": "Tapeta Hunyango",
        "Description[pt]": "Papel de parede Hunyango",
        "Description[pt_BR]": "Papel de parede Hunyango",
        "Description[ro]": "Tapet Hunyango",
        "Description[ru]": "Обои Hunyango",
        "Description[sk]": "Tapeta Hunyango",
        "Description[sl]": "Tapeta Hunyango",
        "Description[sv]": "Hunyango skrivbordsunderlägg",
        "Description[tr]": "Hunyango duvar kağıdı",
        "Description[uk]": "Шпалера Уньянго",
        "Description[vi]": "Phông nền Hunyango",
        "Description[x-test]": "xxHunyango wallpaperxx",
        "Description[zh_CN]": "变色龙壁纸",
        "Description[zh_TW]": "Hunyango 桌布",
        "EnabledByDefault": true,
        "Icon": "preferences-desktop-wallpaper",
        "Id": "org.kde.hunyango",
        "License": "LGPL-2.1",
        "Name": "Hunyango",
        "Name[ar]": "الحرباء",
        "Name[az]": "Hunyango",
        "Name[bg]": "Hunyango",
        "Name[ca@valencia]": "Hunyango",
        "Name[ca]": "Hunyango",
        "Name[cs]": "Hunyango",
        "Name[de]": "Hunyango",
        "Name[en_GB]": "Hunyango",
        "Name[es]": "Hunyango",
        "Name[eu]": "Hunyango",
        "Name[fi]": "Hunyango",
        "Name[fr]": "Hunyango",
        "Name[ia]": "Hunyango",
        "Name[is]": "Hunyango",
        "Name[it]": "Hunyango",
        "Name[ja]": "Hunyango",
        "Name[ka]": "ჰუნიანგო",
        "Name[ko]": "Hunyango",
        "Name[lt]": "Hunyango",
        "Name[nl]": "Hunyango",
        "Name[nn]": "Hunyango",
        "Name[pl]": "Hunyango",
        "Name[pt]": "Hunyango",
        "Name[pt_BR]": "Hunyango",
        "Name[ro]": "Hunyango",
        "Name[ru]": "Hunyango",
        "Name[sk]": "Hunyango",
        "Name[sl]": "Hunyango",
        "Name[sv]": "Hunyango",
        "Name[tr]": "Hunyango",
        "Name[uk]": "Уньянго",
        "Name[vi]": "Hunyango",
        "Name[x-test]": "xxHunyangoxx",
        "Name[zh_CN]": "变色龙",
        "Name[zh_TW]": "Hunyango",
        "ServiceTypes": [
            "Plasma/Wallpaper"
        ],
        "Version": "1.0",
        "Website": "https://kde.org/"
    }
}
