{
    "KPlugin": {
        "Authors": [
            {
                "Email": "ryan.bitanga@gmail.com",
                "Name": "Ryan P. Bitanga",
                "Name[ar]": "Ryan P. Bitanga",
                "Name[az]": "Ryan P. Bitanga",
                "Name[bg]": "Ryan P. Bitanga",
                "Name[ca@valencia]": "Ryan P. Bitanga",
                "Name[ca]": "Ryan P. Bitanga",
                "Name[cs]": "Ryan P. Bitanga",
                "Name[de]": "Ryan P. Bitanga",
                "Name[en_GB]": "Ryan P. Bitanga",
                "Name[es]": "Ryan P. Bitanga",
                "Name[eu]": "Ryan P. Bitanga",
                "Name[fi]": "Ryan P. Bitanga",
                "Name[fr]": "Ryan P. Bitanga",
                "Name[ia]": "Ryan P. Bitanga",
                "Name[id]": "Ryan P. Bitanga",
                "Name[is]": "Ryan P. Bitanga",
                "Name[it]": "Ryan P. Bitanga",
                "Name[ja]": "Ryan P. Bitanga",
                "Name[ka]": "Ryan P. Bitanga",
                "Name[ko]": "Ryan P. Bitanga",
                "Name[lt]": "Ryan P. Bitanga",
                "Name[nl]": "Ryan P. Bitanga",
                "Name[nn]": "Ryan P. Bitanga",
                "Name[pl]": "Ryan P. Bitanga",
                "Name[pt]": "Ryan P. Bitanga",
                "Name[pt_BR]": "Ryan P. Bitanga",
                "Name[ro]": "Ryan P. Bitanga",
                "Name[ru]": "Ryan P. Bitanga",
                "Name[sk]": "Ryan P. Bitanga",
                "Name[sl]": "Ryan P. Bitanga",
                "Name[sv]": "Ryan P. Bitanga",
                "Name[tr]": "Ryan P. Bitanga",
                "Name[uk]": "Ryan P. Bitanga",
                "Name[vi]": "Ryan P. Bitanga",
                "Name[x-test]": "xxRyan P. Bitangaxx",
                "Name[zh_CN]": "Ryan P. Bitanga",
                "Name[zh_TW]": "Ryan P. Bitanga"
            }
        ],
        "Description": "Check the spelling of a word",
        "Description[ar]": "تحقق من هجاء الكلمات",
        "Description[az]": "Sözlərin düzgün yazılışının yoxlanılması",
        "Description[bg]": "Проверка на правописa",
        "Description[ca@valencia]": "Comprova l'ortografia d'una paraula",
        "Description[ca]": "Comprova l'ortografia d'una paraula",
        "Description[cs]": "Kontrola pravopisu",
        "Description[de]": "Rechtschreibung eines Wortes überprüfen",
        "Description[en_GB]": "Check the spelling of a word",
        "Description[es]": "Comprobar la ortografía de una palabra",
        "Description[eu]": "Hitz baten ortografia aztertzea",
        "Description[fi]": "Tarkista sanan oikeinkirjoitus",
        "Description[fr]": "Vérifier l'orthographe d'un mot",
        "Description[ia]": "Controlo orthographic de un parola",
        "Description[id]": "Periksa ejaan dari sebuah kata",
        "Description[is]": "Athuga stafsetningu orðs",
        "Description[it]": "Controlla l'ortografia di una parola",
        "Description[ja]": "単語のスペルをチェックします",
        "Description[ka]": "სიტყვის მართლწერის შემოწმება",
        "Description[ko]": "단어의 맞춤법 검사",
        "Description[lt]": "Žodžių rašybos tikrinimas",
        "Description[nl]": "Controleer de spelling van een woord",
        "Description[nn]": "Sjekk om ord er stava rett",
        "Description[pl]": "Sprawdza pisownie słów",
        "Description[pt]": "Verifica a ortografia de uma palavra",
        "Description[pt_BR]": "Verifica a ortografia de uma palavra",
        "Description[ro]": "Verifică ortografia unui cuvânt",
        "Description[ru]": "Проверка правописания слова",
        "Description[sk]": "Skontrolovať pravopis slova",
        "Description[sl]": "Preberi črkovanje besede",
        "Description[sv]": "Kontrollera stavning av ett ord",
        "Description[tr]": "Bir sözcüğün yazımını denetle",
        "Description[uk]": "Перевірте правопис слова",
        "Description[vi]": "Kiểm tra cách đánh vần của một chữ",
        "Description[x-test]": "xxCheck the spelling of a wordxx",
        "Description[zh_CN]": "检查单词拼写",
        "Description[zh_TW]": "檢查詞彙的拼字",
        "EnabledByDefault": true,
        "Icon": "tools-check-spelling",
        "License": "GPL",
        "Name": "Spell Checker",
        "Name[ar]": "المدقق الإملائي",
        "Name[az]": "Orfoqrafiya yoxlaması",
        "Name[bg]": "Програма за проверка на правописа",
        "Name[ca@valencia]": "Corrector ortogràfic",
        "Name[ca]": "Corrector ortogràfic",
        "Name[cs]": "Kontrola pravopisu",
        "Name[de]": "Rechtschreibprüfung",
        "Name[en_GB]": "Spell Checker",
        "Name[es]": "Comprobación ortográfica",
        "Name[eu]": "Ortografia zuzentzailea",
        "Name[fi]": "Oikeinkirjoituksen tarkistus",
        "Name[fr]": "Vérificateur orthographique",
        "Name[ia]": "Controlator Orthographic",
        "Name[id]": "Pemeriksa Ejaan",
        "Name[is]": "Stafsetningarleiðrétting",
        "Name[it]": "Controllo ortografico",
        "Name[ja]": "スペルチェッカー",
        "Name[ka]": "მართლწერის შემოწმება",
        "Name[ko]": "맞춤법 검사",
        "Name[lt]": "Rašybos tikrinimas",
        "Name[nl]": "Spellingcontrole",
        "Name[nn]": "Stave­kontroll",
        "Name[pl]": "Sprawdzanie pisowni",
        "Name[pt]": "Verificador Ortográfico",
        "Name[pt_BR]": "Verificador ortográfico",
        "Name[ro]": "Verificator ortografic",
        "Name[ru]": "Проверка орфографии",
        "Name[sk]": "Kontrola pravopisu",
        "Name[sl]": "Besedilnik",
        "Name[sv]": "Stavningskontroll",
        "Name[tr]": "Yazım Denetimi",
        "Name[uk]": "Перевірка правопису",
        "Name[vi]": "Trình kiểm tra đánh vần",
        "Name[x-test]": "xxSpell Checkerxx",
        "Name[zh_CN]": "拼写检查",
        "Name[zh_TW]": "拼字檢查"
    },
    "X-KDE-ConfigModule": "kf5/krunner/kcms/kcm_krunner_spellcheck"
}
